BIOS 611 HW4 Relational data (Chapter 13) and Strings (Chapter 14-15)
…
Combine fueleconomy::vehicles and fueleconomy::common to find only the records for the most common models.

Answer:

library(fueleconomy)
most.common <- common %>% 
  arrange(desc(n)) %>%
  select(make, model) %>%
  head(1)
vehicles %>%
  semi_join(most.common, by = c("make", "model"))

## # A tibble: 200 x 12
##       id make  model  year class trans drive   cyl displ fuel    hwy   cty
##    <int> <chr> <chr> <int> <chr> <chr> <chr> <int> <dbl> <chr> <int> <int>
##  1 27343 Ford  F150~  1984 Stan~ Auto~ 2-Wh~     6   4.9 Regu~    15    13
##  2 27344 Ford  F150~  1984 Stan~ Auto~ 2-Wh~     6   4.9 Regu~    18    14
##  3 27345 Ford  F150~  1984 Stan~ Manu~ 2-Wh~     6   4.9 Regu~    19    15
##  4 27346 Ford  F150~  1984 Stan~ Manu~ 2-Wh~     6   4.9 Regu~    22    16
##  5 27347 Ford  F150~  1984 Stan~ Auto~ 2-Wh~     8   5   Regu~    12    11
##  6 27348 Ford  F150~  1984 Stan~ Auto~ 2-Wh~     8   5   Regu~    16    12
##  7 27349 Ford  F150~  1984 Stan~ Manu~ 2-Wh~     8   5   Regu~    15    12
##  8 27350 Ford  F150~  1984 Stan~ Manu~ 2-Wh~     8   5   Regu~    17    13
##  9 27351 Ford  F150~  1984 Stan~ Auto~ 2-Wh~     8   5.8 Regu~    12    11
## 10 27352 Ford  F150~  1984 Stan~ Manu~ 2-Wh~     8   5.8 Regu~    15    11
## # ... with 190 more rows
…
